%YAML 1.1
%TAG !u! tag:unity3d.com,2011:
--- !u!21 &2100000
Material:
  serializedVersion: 6
  m_ObjectHideFlags: 0
  m_CorrespondingSourceObject: {fileID: 0}
  m_PrefabInstance: {fileID: 0}
  m_PrefabAsset: {fileID: 0}
  m_Name: Sun_Blue_Material
  m_Shader: {fileID: -6465566751694194690, guid: 6251e62dfaa18c5438764e63a5291812, type: 3}
  m_ShaderKeywords: 
  m_LightmapFlags: 4
  m_EnableInstancingVariants: 0
  m_DoubleSidedGI: 0
  m_CustomRenderQueue: -1
  stringTagMap: {}
  disabledShaderPasses: []
  m_SavedProperties:
    serializedVersion: 3
    m_TexEnvs:
    - unity_Lightmaps:
        m_Texture: {fileID: 0}
        m_Scale: {x: 1, y: 1}
        m_Offset: {x: 0, y: 0}
    - unity_LightmapsInd:
        m_Texture: {fileID: 0}
        m_Scale: {x: 1, y: 1}
        m_Offset: {x: 0, y: 0}
    - unity_ShadowMasks:
        m_Texture: {fileID: 0}
        m_Scale: {x: 1, y: 1}
        m_Offset: {x: 0, y: 0}
    m_Floats:
    - Vector1_143f722e301245d7aa1409ca58267a9a: 2
    - Vector1_c1776c7e58fa49c084b34f6c6c324836: 50
    - Vector1_d112f735b5094d61a540255bb330dfbe: 250
    m_Colors:
    - Color_0c4f02c9fd7f4bd5af55b0ecc292f544: {r: 0.09962433, g: 0.09769648, b: 0.98626924, a: 0}
    - Color_b997bc25e8db451295fb13770b394ada: {r: 0.24174112, g: 1.1621739, b: 1.5921571, a: 0}
  m_BuildTextureStacks: []
